{
	"info": {
		"_postman_id": "fa5edf86-1bb0-4640-b401-9b00bb51a08a",
		"name": "jwt_token Generation",
		"schema": "https://schema.getpostman.com/json/collection/v2.1.0/collection.json"
	},
	"item": [
		{
			"name": "get JWT token",
			"event": [
				{
					"listen": "test",
					"script": {
						"id": "8c672a68-1e67-4e51-aa3a-dc22e597d733",
						"exec": [
							"//Parse response intok JSON format",
							"var jsonData = pm.response.json();",
							"//Grab token from JSON and Format if needed JSON.stringify();",
							"var token = jsonData.bearerToken;",
							"pm.environment.set(\"jwt_token\",token);",
							"",
							"pm.test(\"Status code is 200\", function () {",
							"    pm.response.to.have.status(200);",
							"});",
							"",
							"pm.test(\"bearerToken is not empty\", function () {",
							"    var jsonData = pm.response.json();",
							"    pm.expect(jsonData.value).to.not.eql(\"\");",
							"});",
							"",
							"pm.test(\"bearerToken is not NULL\", function () {",
							"    var jsonData = pm.response.json();",
							"    pm.expect(jsonData.value).to.not.eql(null);",
							"});"
						],
						"type": "text/javascript"
					}
				},
				{
					"listen": "prerequest",
					"script": {
						"id": "9a2cbea7-0af9-4e2e-9a86-cf179451f651",
						"exec": [
							"//TODO create exp date from CurrentDateTime",
							"//  \"exp\": \"2020-01-31 23:59\""
						],
						"type": "text/javascript"
					}
				}
			],
			"request": {
				"auth": {
					"type": "noauth"
				},
				"method": "POST",
				"header": [
					{
						"key": "Content-Type",
						"value": "application/json",
						"type": "text"
					},
					{
						"key": "alg",
						"value": " HS256",
						"type": "text"
					},
					{
						"key": "kid",
						"value": "brlBtZ369AsvJIbPrdVP0HIv0zhOmYcQ",
						"type": "text"
					}
				],
				"body": {
					"mode": "raw",
					"raw": "{\r\n  \"iss\": \"dorn:test\",\r\n  \"aud\": \"my audience\",\r\n  \"sub\": \"my userId\",\r\n  \"ehr:pvid\": \"{{providerGuid}}\",\r\n  \"ehr:prid\": \"{{practiceGuid}}\",\r\n  \"ln:ehrg\": \"{{ehrGuid}}\",\r\n  \"ln:cp\": \"myPrefix\",\r\n  \"ln:lg\": \"{{labguid}}\"\r\n}",
					"options": {
						"raw": {
							"language": "json"
						}
					}
				},
				"url": {
					"raw": "{{JwtTokenUrl}}/api/v1/jwt",
					"host": [
						"{{JwtTokenUrl}}"
					],
					"path": [
						"api",
						"v1",
						"jwt"
					]
				},
				"description": "- This endpoint will retrieve a JWT token\n- The result will then be placed in the {{jwt_token}} environment variable\n- The {{jwt_token}} variable has been added to each collection under the authorization header and every request should use \" Authorization from parent\"\n- \n\n\n//This is how the JWT should look after all external id changes have been made\n{\n  \"iss\": \"dorn:test\",\n  \"aud\": \"my audience\",\n  \"sub\": \"my userId\",\n  \"ehr:pvid\": \"{{providerGuid}}\",\n  \"ehr:prid\": \"{{practiceGuid}}\",\n  \"ln:ehrg\": \"{{ehrGuid}}\",\n  \"exp\": \"1577694612\",\n  \"iat\": \"1576692244\",\n  \"ln:lg\": \"{{labguid}}\",\n  \"ln:cp\": \"myPrefix\"\n}"
			},
			"response": []
		}
	],
	"protocolProfileBehavior": {}
}