{
	"info": {
		"_postman_id": "c4c9f479-2450-44c8-bd4c-e4f69e10dfd8",
		"name": "PartnerEndpoint",
		"description": "https://practicefusion.atlassian.net/wiki/spaces/TECH/pages/596672807/EHR+Post+Notification+WebHook\r\n\r\nPOST …/partnerendpoint/notify\r\nnote: partnerendpoint represents a notification URL provided by the EHR partner\r\n\r\nThis SSL-authenticated POST call notifies you that a new message is available to be retrieved from the Labs Network.\r\n\r\n\r\nParameters\t\t\tDescription\t\t\t\t\t\t\t\t\t\t\t\t\t\t\t\tReq(d)\r\nnotificationGuid\tUnique identifier for the notification message\t\t\t\t\t\t\tyes\r\nuri\t\t\t\t\tUri from which the notification content can be retrieved\t\t\t\tyes\r\ntype\t\t\t\tNotification type, for example, \"result\", \"orderstatus\", \"compendium\"\tyes\r\n\r\n\r\n\r\n\r\n\r\n\r\nHTTP Response Codes\r\n\r\nCode\tReason\r\n204\t\tNotification successfully delivered\r\n401\t\tBearer token is bad / invalid\r\n403\t\tBearer token is valid but user is not authorized\r\n\r\n\r\nExample Response\r\n------------------------\r\nHTTP/1.1 204 No Content\r\n \r\nResponse:\r\n{\r\n}",
		"schema": "https://schema.getpostman.com/json/collection/v2.1.0/collection.json"
	},
	"item": [
		{
			"name": "EHR Post Notification  --result",
			"event": [
				{
					"listen": "test",
					"script": {
						"id": "5ec0bde3-35a4-4709-82ba-ad5321755f20",
						"exec": [
							"pm.test(\"Status code is 204\", function () {",
							"    pm.response.to.have.status(204);",
							"});"
						],
						"type": "text/javascript"
					}
				}
			],
			"protocolProfileBehavior": {
				"disableBodyPruning": true
			},
			"request": {
				"method": "GET",
				"header": [
					{
						"key": "Content-Type",
						"name": "Content-Type",
						"value": "application/json",
						"type": "text"
					}
				],
				"body": {
					"mode": "raw",
					"raw": "{  \r\n    \"notificationGuid\": \"87654321-593a-4fa4-b1ef-249f1a051234\",\r\n    \"uri\": \"…/api/v1/results/123429b3-593a-4fa4-b1ef-249f1a053187\",\r\n    \"type\":\"result\"\r\n}",
					"options": {
						"raw": {
							"language": "json"
						}
					}
				},
				"url": {
					"raw": "{{internalUrl}}/partnerendpoint/notify",
					"host": [
						"{{internalUrl}}"
					],
					"path": [
						"partnerendpoint",
						"notify"
					]
				}
			},
			"response": []
		},
		{
			"name": "EHR Post Notification  --orderstatus",
			"event": [
				{
					"listen": "test",
					"script": {
						"id": "5ec0bde3-35a4-4709-82ba-ad5321755f20",
						"exec": [
							"pm.test(\"Status code is 204\", function () {",
							"    pm.response.to.have.status(204);",
							"});"
						],
						"type": "text/javascript"
					}
				}
			],
			"protocolProfileBehavior": {
				"disableBodyPruning": true
			},
			"request": {
				"method": "GET",
				"header": [
					{
						"key": "Content-Type",
						"name": "Content-Type",
						"type": "text",
						"value": "application/json"
					}
				],
				"body": {
					"mode": "raw",
					"raw": "{  \r\n    \"notificationGuid\": \"99654321-593a-4fa4-b1ef-249f1a051234\",\r\n    \"uri\": \"…/api/v1/orderstatus/993429b3-593a-4fa4-b1ef-249f1a053187\",\r\n    \"type\":\"orderstatus\"\r\n}",
					"options": {
						"raw": {
							"language": "json"
						}
					}
				},
				"url": {
					"raw": "{{internalUrl}}/partnerendpoint/notify",
					"host": [
						"{{internalUrl}}"
					],
					"path": [
						"partnerendpoint",
						"notify"
					]
				}
			},
			"response": []
		},
		{
			"name": "EHR Post Notification --compendium",
			"event": [
				{
					"listen": "test",
					"script": {
						"id": "5ec0bde3-35a4-4709-82ba-ad5321755f20",
						"exec": [
							"pm.test(\"Status code is 204\", function () {",
							"    pm.response.to.have.status(204);",
							"});"
						],
						"type": "text/javascript"
					}
				}
			],
			"protocolProfileBehavior": {
				"disableBodyPruning": true
			},
			"request": {
				"method": "GET",
				"header": [
					{
						"key": "Content-Type",
						"name": "Content-Type",
						"type": "text",
						"value": "application/json"
					}
				],
				"body": {
					"mode": "raw",
					"raw": "{\r\n    \"notificationGuid\": \"44654321-593a-4fa4-b1ef-249f1a051234\",\r\n    \"uri\": \"…/api/v1/labGuid/443429b3-593a-4fa4-b1ef-249f1a053187/compendium\",     \r\n    \"type\":\"compendium\"\r\n}",
					"options": {
						"raw": {
							"language": "json"
						}
					}
				},
				"url": {
					"raw": "{{internalUrl}}/partnerendpoint/notify",
					"host": [
						"{{internalUrl}}"
					],
					"path": [
						"partnerendpoint",
						"notify"
					]
				}
			},
			"response": []
		}
	],
	"event": [
		{
			"listen": "prerequest",
			"script": {
				"id": "6452f1a6-7ad7-4cbd-a746-c01ded8fa4a3",
				"type": "text/javascript",
				"exec": [
					""
				]
			}
		},
		{
			"listen": "test",
			"script": {
				"id": "8233c8a8-79ed-453b-a730-575cb796a397",
				"type": "text/javascript",
				"exec": [
					""
				]
			}
		}
	],
	"protocolProfileBehavior": {}
}