{
	"info": {
		"_postman_id": "11360a64-b8ad-45cd-b8e3-2ac42eb56c74",
		"name": "Results",
		"schema": "https://schema.getpostman.com/json/collection/v2.1.0/collection.json"
	},
	"item": [
		{
			"name": "Get Results",
			"event": [
				{
					"listen": "test",
					"script": {
						"id": "43098389-d5a0-45e1-9511-01c7388146f7",
						"exec": [
							"pm.test(\"response is ok\", function () {\r",
							"    pm.response.to.have.status(200);\r",
							"});\r",
							"\r",
							"pm.test(\"pf-correlation-id header is present\", function () {\r",
							"    pm.response.to.have.header(\"pf-correlation-id\");\r",
							"});"
						],
						"type": "text/javascript"
					}
				}
			],
			"request": {
				"method": "GET",
				"header": [],
				"url": {
					"raw": "{{internalUrl}}/api/v1/results?",
					"host": [
						"{{internalUrl}}"
					],
					"path": [
						"api",
						"v1",
						"results"
					],
					"query": [
						{
							"key": "startDateTimeUtc",
							"value": "{{startDateTimeUtc}}",
							"description": "2019-07-20T00:00:00Z",
							"disabled": true
						},
						{
							"key": "endDateTimeUtc",
							"value": "{{endDateTimeUtc}}",
							"description": "=2019-07-20T00:00:00Z",
							"disabled": true
						}
					]
				},
				"description": "This SSL-authenticated GET call allows you to retrieve results from the Labs Network. The endpoint can return results in JSON.\r\n\r\nIf no messageGuidand no startDateTimeUtc or endDateTimeUtc is provided then response is a list of all pending results for the EHR\r\n\r\n\r\n\r\nCode\tReason\r\n\r\n200\t\tResult message(s) successfully returned, or no result messages available for date range query\r\n400\t\tInvalid format of request parameters\r\n401\t\tBearer token is bad / invalid\r\n403\t\tBearer token is valid but user is not authorized\r\n404\t\tResult not found for messageGuid"
			},
			"response": [
				{
					"name": "Get Results",
					"originalRequest": {
						"method": "GET",
						"header": [],
						"url": {
							"raw": "{{internalUrl}}/api/v1/results",
							"host": [
								"{{internalUrl}}"
							],
							"path": [
								"api",
								"v1",
								"results"
							]
						}
					},
					"code": 200,
					"_postman_previewlanguage": "json",
					"header": [
						{
							"key": "Content-Type",
							"value": "application/json",
							"description": "",
							"type": "text"
						}
					],
					"cookie": [],
					"body": "{\n    \"results\": [\n        {\n            \"messageGuid\": \"123429b3-593a-4fa4-b1ef-249f1a053187\",\n            \"orderGuid\": \"f911f3ed-342b-46b6-a5dc-8171d5ed08bf\",\n            \"orderNumber\": \"23456\",\n            \"labGuid\": \"9876a88f-8fd9-4d13-b41b-22658de4c6d9\",\n            \"accountNumber\": \"PREMIER4115\",\n            \"practiceGuid\": \"11145678-8fd9-4d13-b41b-22658de4c6d9\",\n            \"providerGuid\": \"22245678-8fd9-4d13-b41b-22658de4c6d9\",\n            \"hl7Base64\": \"TVNIfF5+XCZ8Q2FyZUV2b2x2ZXx8UHJhY3RpY2VGdXNpb258OTg4ODJ8MjAxOTA1MDkxODM3NTZ8f…\",\n            \"status\": \"pending\"\n        }\n    ]\n}"
				}
			]
		},
		{
			"name": "Get Results by ResultGuid",
			"event": [
				{
					"listen": "test",
					"script": {
						"id": "840c7b8c-e297-4435-bed1-6da485d5c984",
						"exec": [
							"pm.test(\"pf-correlation-id header is present\", function () {",
							"    pm.response.to.have.header(\"pf-correlation-id\");",
							"});"
						],
						"type": "text/javascript"
					}
				}
			],
			"request": {
				"method": "GET",
				"header": [],
				"url": {
					"raw": "{{internalUrl}}/api/v1/results/:resultGuid?",
					"host": [
						"{{internalUrl}}"
					],
					"path": [
						"api",
						"v1",
						"results",
						":resultGuid"
					],
					"query": [
						{
							"key": "",
							"value": "",
							"disabled": true
						}
					],
					"variable": [
						{
							"key": "resultGuid",
							"value": "{{resultGuid}}",
							"description": "Needs to be retrieved from WebHook"
						}
					]
				},
				"description": "If messageGuid is provided the response returns a single lab result for the given result id. If result doesn't exist a 404 is returned\n\n\nCode\tReason\n\n200\t\tResult message(s) successfully returned, or no result messages available for date range query\n400\t\tInvalid format of request parameters\n401\t\tBearer token is bad / invalid\n403\t\tBearer token is valid but user is not authorized\n404\t\tResult not found for messageGuid"
			},
			"response": [
				{
					"name": "Get Results",
					"originalRequest": {
						"method": "GET",
						"header": [],
						"url": {
							"raw": "{{internalUrl}}/api/v1/results",
							"host": [
								"{{internalUrl}}"
							],
							"path": [
								"api",
								"v1",
								"results"
							]
						}
					},
					"code": 200,
					"_postman_previewlanguage": "json",
					"header": [
						{
							"key": "Content-Type",
							"value": "application/json",
							"description": "",
							"type": "text"
						}
					],
					"cookie": [],
					"body": "{\n    \"results\": [\n        {\n            \"messageGuid\": \"123429b3-593a-4fa4-b1ef-249f1a053187\",\n            \"orderGuid\": \"f911f3ed-342b-46b6-a5dc-8171d5ed08bf\",\n            \"orderNumber\": \"23456\",\n            \"labGuid\": \"9876a88f-8fd9-4d13-b41b-22658de4c6d9\",\n            \"accountNumber\": \"PREMIER4115\",\n            \"practiceGuid\": \"11145678-8fd9-4d13-b41b-22658de4c6d9\",\n            \"providerGuid\": \"22245678-8fd9-4d13-b41b-22658de4c6d9\",\n            \"hl7Base64\": \"TVNIfF5+XCZ8Q2FyZUV2b2x2ZXx8UHJhY3RpY2VGdXNpb258OTg4ODJ8MjAxOTA1MDkxODM3NTZ8f…\",\n            \"status\": \"pending\"\n        }\n    ]\n}"
				}
			]
		},
		{
			"name": "Get Results by startDate/endDate",
			"event": [
				{
					"listen": "test",
					"script": {
						"id": "7487f789-b900-4b14-aca5-732d10f65169",
						"exec": [
							"pm.test(\"pf-correlation-id header is present\", function () {",
							"    pm.response.to.have.header(\"pf-correlation-id\");",
							"});"
						],
						"type": "text/javascript"
					}
				}
			],
			"request": {
				"method": "GET",
				"header": [],
				"url": {
					"raw": "{{internalUrl}}/api/v1/results?startDateTimeUtc={{startDateTimeUtc}}&endDateTimeUtc={{endDateTimeUtc}}",
					"host": [
						"{{internalUrl}}"
					],
					"path": [
						"api",
						"v1",
						"results"
					],
					"query": [
						{
							"key": "startDateTimeUtc",
							"value": "{{startDateTimeUtc}}",
							"description": "2019-07-20T00:00:00Z"
						},
						{
							"key": "endDateTimeUtc",
							"value": "{{endDateTimeUtc}}",
							"description": "=2019-07-20T00:00:00Z"
						}
					]
				},
				"description": "If no messageGuid and startDateTimeUtc and endDateTimeUtc is provided then response is a list of all results (pending or not) that exist for EHR since startDateTimeUtc provided and before the endDateTimeUtc provided (inclusive)\n\nCode\tReason\n\n200\t\tResult message(s) successfully returned, or no result messages available for date range query\n400\t\tInvalid format of request parameters\n401\t\tBearer token is bad / invalid\n403\t\tBearer token is valid but user is not authorized\n404\t\tResult not found for messageGuid"
			},
			"response": [
				{
					"name": "Get Results",
					"originalRequest": {
						"method": "GET",
						"header": [],
						"url": {
							"raw": "{{internalUrl}}/api/v1/results",
							"host": [
								"{{internalUrl}}"
							],
							"path": [
								"api",
								"v1",
								"results"
							]
						}
					},
					"code": 200,
					"_postman_previewlanguage": "json",
					"header": [
						{
							"key": "Content-Type",
							"value": "application/json",
							"description": "",
							"type": "text"
						}
					],
					"cookie": [],
					"body": "{\n    \"results\": [\n        {\n            \"messageGuid\": \"123429b3-593a-4fa4-b1ef-249f1a053187\",\n            \"orderGuid\": \"f911f3ed-342b-46b6-a5dc-8171d5ed08bf\",\n            \"orderNumber\": \"23456\",\n            \"labGuid\": \"9876a88f-8fd9-4d13-b41b-22658de4c6d9\",\n            \"accountNumber\": \"PREMIER4115\",\n            \"practiceGuid\": \"11145678-8fd9-4d13-b41b-22658de4c6d9\",\n            \"providerGuid\": \"22245678-8fd9-4d13-b41b-22658de4c6d9\",\n            \"hl7Base64\": \"TVNIfF5+XCZ8Q2FyZUV2b2x2ZXx8UHJhY3RpY2VGdXNpb258OTg4ODJ8MjAxOTA1MDkxODM3NTZ8f…\",\n            \"status\": \"pending\"\n        }\n    ]\n}"
				}
			]
		}
	],
	"auth": {
		"type": "bearer",
		"bearer": [
			{
				"key": "token",
				"value": "{{jwt_token}}",
				"type": "string"
			}
		]
	},
	"event": [
		{
			"listen": "prerequest",
			"script": {
				"id": "fa2d2590-79c2-42f8-b43f-685375021b4a",
				"type": "text/javascript",
				"exec": [
					""
				]
			}
		},
		{
			"listen": "test",
			"script": {
				"id": "440fbe23-acd1-46ca-ace8-ac545de14a6f",
				"type": "text/javascript",
				"exec": [
					""
				]
			}
		}
	],
	"protocolProfileBehavior": {}
}